21.0,2021-05-05,21.0.4,Dylan Baker,This is the last planned release of the 21.0.x series.
21.1,2021-07-14,21.1.5,Eric Engestrom,
21.1,2021-07-28,21.1.6,Eric Engestrom,
21.1,2021-08-11,21.1.7,Eric Engestrom,
21.1,2021-08-25,21.1.8,Eric Engestrom,
